…
aardvark  TRUE    FALSE FALSE  TRUE    FALSE   FALSE     TRUE    TRUE     TRUE     TRUE    FALSE
antelope  TRUE    FALSE FALSE  TRUE    FALSE   FALSE    FALSE    TRUE     TRUE     TRUE    FALSE
bass     FALSE    FALSE  TRUE FALSE    FALSE    TRUE     TRUE    TRUE     TRUE    FALSE    FALSE
bear      TRUE    FALSE FALSE  TRUE    FALSE   FALSE     TRUE    TRUE     TRUE     TRUE    FALSE
boar      TRUE    FALSE FALSE  TRUE    FALSE   FALSE     TRUE    TRUE     TRUE     TRUE    FALSE
buffalo   TRUE    FALSE FALSE  TRUE    FALSE   FALSE    FALSE    TRUE     TRUE     TRUE    FALSE
          fins legs  tail domestic catsize   type
aardvark FALSE    4 FALSE    FALSE    TRUE mammal
antelope FALSE    4  TRUE    FALSE    TRUE mammal
bass      TRUE    0  TRUE    FALSE   FALSE   fish
bear     FALSE    4 FALSE    FALSE    TRUE mammal
boar     FALSE    4  TRUE    FALSE    TRUE mammal
buffalo  FALSE    4  TRUE    FALSE    TRUE mammal
> as_tibble(Zoo)
# A tibble: 101 x 17
   hair  feathers eggs  milk  airborne aquatic predator toothed backbone breathes venomous fins 
   <lgl> <lgl>    <lgl> <lgl> <lgl>    <lgl>   <lgl>    <lgl>   <lgl>    <lgl>    <lgl>    <lgl>
 1 TRUE  FALSE    FALSE TRUE  FALSE    FALSE   TRUE     TRUE    TRUE     TRUE     FALSE    FALSE
 2 TRUE  FALSE    FALSE TRUE  FALSE    FALSE   FALSE    TRUE    TRUE     TRUE     FALSE    FALSE
 3 FALSE FALSE    TRUE  FALSE FALSE    TRUE    TRUE     TRUE    TRUE     FALSE    FALSE    TRUE 
 4 TRUE  FALSE    FALSE TRUE  FALSE    FALSE   TRUE     TRUE    TRUE     TRUE     FALSE    FALSE
 5 TRUE  FALSE    FALSE TRUE  FALSE    FALSE   TRUE     TRUE    TRUE     TRUE     FALSE    FALSE
 6 TRUE  FALSE    FALSE TRUE  FALSE    FALSE   FALSE    TRUE    TRUE     TRUE     FALSE    FALSE
 7 TRUE  FALSE    FALSE TRUE  FALSE    FALSE   FALSE    TRUE    TRUE     TRUE     FALSE    FALSE
 8 FALSE FALSE    TRUE  FALSE FALSE    TRUE    FALSE    TRUE    TRUE     FALSE    FALSE    TRUE 
 9 FALSE FALSE    TRUE  FALSE FALSE    TRUE    TRUE     TRUE    TRUE     FALSE    FALSE    TRUE 
10 TRUE  FALSE    FALSE TRUE  FALSE    FALSE   FALSE    TRUE    TRUE     TRUE     FALSE    FALSE
# i 91 more rows
# i 5 more variables: legs <int>, tail <lgl>, domestic <lgl>, catsize <lgl>, type <fct>
# i Use `print(n = ...)` to see more rows
…
Error: object 'zoo' not found
> zoo->zoo%>%
+     modify_if(is.logical, factor, levels = c(TRUE, FALSE)) %>%
+     modify_if(is.character, factor)
Error: object 'zoo' not found
> zoo <- zoo %>%
+     modify_if(is.logical, factor, levels = c(TRUE, FALSE)) %>%
+     modify_if(is.character, factor)
Error: object 'zoo' not found
> Zoo <- Zoo %>%
+     modify_if(is.logical, factor, levels = c(TRUE, FALSE)) %>%
+     modify_if(is.character, factor)
> library(rpart)
> as_tibble(Zoo, rownames = "animal")
# A tibble: 101 x 18
   animal hair  feathers eggs  milk  airborne aquatic predator toothed backbone breathes venomous
   <chr>  <fct> <fct>    <fct> <fct> <fct>    <fct>   <fct>    <fct>   <fct>    <fct>    <fct>   
 1 1      TRUE  FALSE    FALSE TRUE  FALSE    FALSE   TRUE     TRUE    TRUE     TRUE     FALSE   
 2 2      TRUE  FALSE    FALSE TRUE  FALSE    FALSE   FALSE    TRUE    TRUE     TRUE     FALSE   
 3 3      FALSE FALSE    TRUE  FALSE FALSE    TRUE    TRUE     TRUE    TRUE     FALSE    FALSE   
 4 4      TRUE  FALSE    FALSE TRUE  FALSE    FALSE   TRUE     TRUE    TRUE     TRUE     FALSE   
 5 5      TRUE  FALSE    FALSE TRUE  FALSE    FALSE   TRUE     TRUE    TRUE     TRUE     FALSE   
 6 6      TRUE  FALSE    FALSE TRUE  FALSE    FALSE   FALSE    TRUE    TRUE     TRUE     FALSE   
 7 7      TRUE  FALSE    FALSE TRUE  FALSE    FALSE   FALSE    TRUE    TRUE     TRUE     FALSE   
 8 8      FALSE FALSE    TRUE  FALSE FALSE    TRUE    FALSE    TRUE    TRUE     FALSE    FALSE   
 9 9      FALSE FALSE    TRUE  FALSE FALSE    TRUE    TRUE     TRUE    TRUE     FALSE    FALSE   
10 10     TRUE  FALSE    FALSE TRUE  FALSE    FALSE   FALSE    TRUE    TRUE     TRUE     FALSE   
# i 91 more rows
# i 6 more variables: fins <fct>, legs <int>, tail <fct>, domestic <fct>, catsize <fct>, type <fct>
# i Use `print(n = ...)` to see more rows
…
